%YAML 1.1
%TAG !u! tag:unity3d.com,2011:
--- !u!29 &1
SceneSettings:
  m_ObjectHideFlags: 0
  m_PVSData: 
  m_PVSObjectsArray: []
  m_PVSPortalsArray: []
  m_OcclusionBakeSettings:
    smallestOccluder: 5
    smallestHole: .25
    backfaceThreshold: 100
--- !u!104 &2
RenderSettings:
  m_Fog: 0
  m_FogColor: {r: .5, g: .5, b: .5, a: 1}
  m_FogMode: 3
  m_FogDensity: .00999999978
  m_LinearFogStart: 0
  m_LinearFogEnd: 300
  m_AmbientLight: {r: .200000003, g: .200000003, b: .200000003, a: 1}
  m_SkyboxMaterial: {fileID: 0}
  m_HaloStrength: .5
  m_FlareStrength: 1
  m_FlareFadeSpeed: 3
  m_HaloTexture: {fileID: 0}
  m_SpotCookie: {fileID: 0}
  m_ObjectHideFlags: 0
--- !u!127 &3
LevelGameManager:
  m_ObjectHideFlags: 0
--- !u!157 &4
LightmapSettings:
  m_ObjectHideFlags: 0
  m_LightProbes: {fileID: 0}
  m_Lightmaps: []
  m_LightmapsMode: 1
  m_BakedColorSpace: 0
  m_UseDualLightmapsInForward: 0
  m_LightmapEditorSettings:
    m_Resolution: 50
    m_LastUsedResolution: 0
    m_TextureWidth: 1024
    m_TextureHeight: 1024
    m_BounceBoost: 1
    m_BounceIntensity: 1
    m_SkyLightColor: {r: .860000014, g: .930000007, b: 1, a: 1}
    m_SkyLightIntensity: 0
    m_Quality: 0
    m_Bounces: 1
    m_FinalGatherRays: 1000
    m_FinalGatherContrastThreshold: .0500000007
    m_FinalGatherGradientThreshold: 0
    m_FinalGatherInterpolationPoints: 15
    m_AOAmount: 0
    m_AOMaxDistance: .100000001
    m_AOContrast: 1
    m_LODSurfaceMappingDistance: 1
    m_Padding: 0
    m_TextureCompression: 0
    m_LockAtlas: 0
--- !u!196 &5
NavMeshSettings:
  m_ObjectHideFlags: 0
  m_BuildSettings:
    agentRadius: .5
    agentHeight: 2
    agentSlope: 45
    agentClimb: .400000006
    ledgeDropHeight: 0
    maxJumpAcrossDistance: 0
    accuratePlacement: 0
    minRegionArea: 2
    widthInaccuracy: 16.666666
    heightInaccuracy: 10
  m_NavMesh: {fileID: 0}
--- !u!1 &170491489
GameObject:
  m_ObjectHideFlags: 0
  m_PrefabParentObject: {fileID: 191196, guid: f82c6f50751593b4fa68f7a717a6b497, type: 2}
  m_PrefabInternal: {fileID: 918826405}
  serializedVersion: 4
  m_Component:
  - 4: {fileID: 170491491}
  - 108: {fileID: 170491490}
  m_Layer: 0
  m_Name: Point light
  m_TagString: Untagged
  m_Icon: {fileID: 0}
  m_NavMeshLayer: 0
  m_StaticEditorFlags: 0
  m_IsActive: 1
--- !u!108 &170491490
Light:
  m_ObjectHideFlags: 0
  m_PrefabParentObject: {fileID: 10891196, guid: f82c6f50751593b4fa68f7a717a6b497,
    type: 2}
  m_PrefabInternal: {fileID: 918826405}
  m_GameObject: {fileID: 170491489}
  m_Enabled: 1
  serializedVersion: 3
  m_Type: 2
  m_Color: {r: 1, g: 1, b: 1, a: 1}
  m_Intensity: .850000024
  m_Range: 4
  m_SpotAngle: 30
  m_CookieSize: 10
  m_Shadows:
    m_Type: 0
    m_Resolution: -1
    m_Strength: 1
    m_Bias: .0500000007
    m_Softness: 4
    m_SoftnessFade: 1
  m_Cookie: {fileID: 0}
  m_DrawHalo: 0
  m_ActuallyLightmapped: 0
  m_Flare: {fileID: 0}
  m_RenderMode: 0
  m_CullingMask:
    serializedVersion: 2
    m_Bits: 4294967295
  m_Lightmapping: 1
  m_ShadowSamples: 1
  m_ShadowRadius: 0
  m_ShadowAngle: 0
  m_IndirectIntensity: 1
  m_AreaSize: {x: 1, y: 1}
--- !u!4 &170491491
Transform:
  m_ObjectHideFlags: 0
  m_PrefabParentObject: {fileID: 491196, guid: f82c6f50751593b4fa68f7a717a6b497, type: 2}
  m_PrefabInternal: {fileID: 918826405}
  m_GameObject: {fileID: 170491489}
  m_LocalRotation: {x: 0, y: 0, z: 0, w: 1}
  m_LocalPosition: {x: 0, y: .100000001, z: -1}
  m_LocalScale: {x: 1, y: 1, z: 1}
  m_Children: []
  m_Father: {fileID: 181781569}
  m_RootOrder: 0
--- !u!1 &181781567
GameObject:
  m_ObjectHideFlags: 0
  m_PrefabParentObject: {fileID: 122236, guid: f82c6f50751593b4fa68f7a717a6b497, type: 2}
  m_PrefabInternal: {fileID: 918826405}
  serializedVersion: 4
  m_Component:
  - 4: {fileID: 181781569}
  - 114: {fileID: 181781568}
  m_Layer: 8
  m_Name: Switch
  m_TagString: Untagged
  m_Icon: {fileID: 0}
  m_NavMeshLayer: 0
  m_StaticEditorFlags: 0
  m_IsActive: 1
--- !u!114 &181781568
MonoBehaviour:
  m_ObjectHideFlags: 0
  m_PrefabParentObject: {fileID: 11422236, guid: f82c6f50751593b4fa68f7a717a6b497,
    type: 2}
  m_PrefabInternal: {fileID: 918826405}
  m_GameObject: {fileID: 181781567}
  m_Enabled: 1
  m_EditorHideFlags: 0
  m_Script: {fileID: 11500000, guid: 05c93d117920f9745896f376c9117153, type: 3}
  m_Name: 
  m_EditorClassIdentifier: 
  Door: {fileID: 1733959589}
  Pressed: 0
  ResetDelay: .75
  ResetTime: 0
  Button: {fileID: 1046402974}
  ButtonOffset: .200000003
  ButtonDamping: .100000001
  Material: {fileID: 2100000, guid: 8975c54e7ddf84041aae9a17571f2427, type: 2}
  Renderers:
  - {fileID: 623671525}
  - {fileID: 1046402976}
  Line: {fileID: 795786676}
  DoorOffset: 4
  SwitchOffset: 1
  EdgeOffset: .5
  Light: {fileID: 170491490}
--- !u!4 &181781569
Transform:
  m_ObjectHideFlags: 0
  m_PrefabParentObject: {fileID: 422236, guid: f82c6f50751593b4fa68f7a717a6b497, type: 2}
  m_PrefabInternal: {fileID: 918826405}
  m_GameObject: {fileID: 181781567}
  m_LocalRotation: {x: 0, y: 0, z: 0, w: 1}
  m_LocalPosition: {x: 1.82200003, y: 1.75, z: 1.89400005}
  m_LocalScale: {x: 1, y: 1, z: 1}
  m_Children:
  - {fileID: 170491491}
  - {fileID: 623671524}
  - {fileID: 1046402975}
  - {fileID: 795786675}
  m_Father: {fileID: 0}
  m_RootOrder: 3
--- !u!1 &467882519
GameObject:
  m_ObjectHideFlags: 0
  m_PrefabParentObject: {fileID: 113236, guid: 2037f06d903da874cac6515daaa3dd27, type: 2}
  m_PrefabInternal: {fileID: 1316719408}
  serializedVersion: 4
  m_Component:
  - 4: {fileID: 467882523}
  - 33: {fileID: 467882522}
  - 23: {fileID: 467882520}
  - 65: {fileID: 467882521}
  m_Layer: 0
  m_Name: Cube
  m_TagString: Untagged
  m_Icon: {fileID: 0}
  m_NavMeshLayer: 0
  m_StaticEditorFlags: 0
  m_IsActive: 1
--- !u!23 &467882520
Renderer:
  m_ObjectHideFlags: 0
  m_PrefabParentObject: {fileID: 2313236, guid: 2037f06d903da874cac6515daaa3dd27,
    type: 2}
  m_PrefabInternal: {fileID: 1316719408}
  m_GameObject: {fileID: 467882519}
  m_Enabled: 1
  m_CastShadows: 1
  m_ReceiveShadows: 1
  m_LightmapIndex: 255
  m_LightmapTilingOffset: {x: 1, y: 1, z: 0, w: 0}
  m_Materials:
  - {fileID: 2100000, guid: ed68b5ee4a9d19645adac4e2ecf86669, type: 2}
  - {fileID: 2100000, guid: 8975c54e7ddf84041aae9a17571f2427, type: 2}
  m_SubsetIndices: 
  m_StaticBatchRoot: {fileID: 0}
  m_UseLightProbes: 0
  m_LightProbeAnchor: {fileID: 0}
  m_ScaleInLightmap: 1
  m_SortingLayerID: 0
  m_SortingOrder: 0
--- !u!65 &467882521
BoxCollider:
  m_ObjectHideFlags: 0
  m_PrefabParentObject: {fileID: 6509070, guid: 2037f06d903da874cac6515daaa3dd27,
    type: 2}
  m_PrefabInternal: {fileID: 1316719408}
  m_GameObject: {fileID: 467882519}
  m_Material: {fileID: 0}
  m_IsTrigger: 0
  m_Enabled: 1
  serializedVersion: 2
  m_Size: {x: 3.00000072, y: 4.00000095, z: .499537498}
  m_Center: {x: -1.1920929e-07, y: -1.1920929e-07, z: -1.49011612e-08}
--- !u!33 &467882522
MeshFilter:
  m_ObjectHideFlags: 0
  m_PrefabParentObject: {fileID: 3313236, guid: 2037f06d903da874cac6515daaa3dd27,
    type: 2}
  m_PrefabInternal: {fileID: 1316719408}
  m_GameObject: {fileID: 467882519}
  m_Mesh: {fileID: 4300000, guid: 7d534b633ec9a084f9442ea8cf5c7cd1, type: 3}
--- !u!4 &467882523
Transform:
  m_ObjectHideFlags: 0
  m_PrefabParentObject: {fileID: 413236, guid: 2037f06d903da874cac6515daaa3dd27, type: 2}
  m_PrefabInternal: {fileID: 1316719408}
  m_GameObject: {fileID: 467882519}
  m_LocalRotation: {x: 0, y: 0, z: 0, w: 1}
  m_LocalPosition: {x: 0, y: 2, z: 0}
  m_LocalScale: {x: 1, y: 1, z: 1}
  m_Children: []
  m_Father: {fileID: 789617500}
  m_RootOrder: 0
--- !u!1 &623671523
GameObject:
  m_ObjectHideFlags: 0
  m_PrefabParentObject: {fileID: 113680, guid: f82c6f50751593b4fa68f7a717a6b497, type: 2}
  m_PrefabInternal: {fileID: 918826405}
  serializedVersion: 4
  m_Component:
  - 4: {fileID: 623671524}
  - 33: {fileID: 623671527}
  - 65: {fileID: 623671526}
  - 23: {fileID: 623671525}
  m_Layer: 8
  m_Name: Socket
  m_TagString: Untagged
  m_Icon: {fileID: 0}
  m_NavMeshLayer: 0
  m_StaticEditorFlags: 0
  m_IsActive: 1
--- !u!4 &623671524
Transform:
  m_ObjectHideFlags: 0
  m_PrefabParentObject: {fileID: 413680, guid: f82c6f50751593b4fa68f7a717a6b497, type: 2}
  m_PrefabInternal: {fileID: 918826405}
  m_GameObject: {fileID: 623671523}
  m_LocalRotation: {x: 0, y: -1, z: 0, w: 1.11195718e-07}
  m_LocalPosition: {x: 0, y: 0, z: 0}
  m_LocalScale: {x: 1, y: 1, z: 1}
  m_Children: []
  m_Father: {fileID: 181781569}
  m_RootOrder: 1
--- !u!23 &623671525
Renderer:
  m_ObjectHideFlags: 0
  m_PrefabParentObject: {fileID: 2313682, guid: f82c6f50751593b4fa68f7a717a6b497,
    type: 2}
  m_PrefabInternal: {fileID: 918826405}
  m_GameObject: {fileID: 623671523}
  m_Enabled: 1
  m_CastShadows: 1
  m_ReceiveShadows: 1
  m_LightmapIndex: 255
  m_LightmapTilingOffset: {x: 1, y: 1, z: 0, w: 0}
  m_Materials:
  - {fileID: 2100000, guid: 8975c54e7ddf84041aae9a17571f2427, type: 2}
  m_SubsetIndices: 
  m_StaticBatchRoot: {fileID: 0}
  m_UseLightProbes: 0
  m_LightProbeAnchor: {fileID: 0}
  m_ScaleInLightmap: 1
  m_SortingLayerID: 0
  m_SortingOrder: 0
--- !u!65 &623671526
BoxCollider:
  m_ObjectHideFlags: 0
  m_PrefabParentObject: {fileID: 6513682, guid: f82c6f50751593b4fa68f7a717a6b497,
    type: 2}
  m_PrefabInternal: {fileID: 918826405}
  m_GameObject: {fileID: 623671523}
  m_Material: {fileID: 0}
  m_IsTrigger: 0
  m_Enabled: 1
  serializedVersion: 2
  m_Size: {x: 1, y: 1, z: 1}
  m_Center: {x: 0, y: 0, z: 0}
--- !u!33 &623671527
MeshFilter:
  m_ObjectHideFlags: 0
  m_PrefabParentObject: {fileID: 3313682, guid: f82c6f50751593b4fa68f7a717a6b497,
    type: 2}
  m_PrefabInternal: {fileID: 918826405}
  m_GameObject: {fileID: 623671523}
  m_Mesh: {fileID: 4300000, guid: 8a4c19da5be9d7a48b27725b586cb4a3, type: 3}
--- !u!1 &690194436
GameObject:
  m_ObjectHideFlags: 0
  m_PrefabParentObject: {fileID: 100000, guid: 20e153303e83eac45b97874e6f83657e, type: 2}
  m_PrefabInternal: {fileID: 0}
  serializedVersion: 4
  m_Component:
  - 4: {fileID: 690194438}
  - 114: {fileID: 690194437}
  - 114: {fileID: 690194439}
  m_Layer: 0
  m_Name: _Game
  m_TagString: Untagged
  m_Icon: {fileID: 0}
  m_NavMeshLayer: 0
  m_StaticEditorFlags: 0
  m_IsActive: 1
--- !u!114 &690194437
MonoBehaviour:
  m_ObjectHideFlags: 0
  m_PrefabParentObject: {fileID: 11400000, guid: 20e153303e83eac45b97874e6f83657e,
    type: 2}
  m_PrefabInternal: {fileID: 0}
  m_GameObject: {fileID: 690194436}
  m_Enabled: 1
  m_EditorHideFlags: 0
  m_Script: {fileID: 11500000, guid: db78394d987af79468b9b1ad0b843504, type: 3}
  m_Name: 
  m_EditorClassIdentifier: 
  message: 
  ID: 1
--- !u!4 &690194438
Transform:
  m_ObjectHideFlags: 0
  m_PrefabParentObject: {fileID: 400000, guid: 20e153303e83eac45b97874e6f83657e, type: 2}
  m_PrefabInternal: {fileID: 0}
  m_GameObject: {fileID: 690194436}
  m_LocalRotation: {x: 0, y: 0, z: 0, w: 1}
  m_LocalPosition: {x: 0, y: 0, z: 0}
  m_LocalScale: {x: 1, y: 1, z: 1}
  m_Children: []
  m_Father: {fileID: 0}
  m_RootOrder: 4
--- !u!114 &690194439
MonoBehaviour:
  m_ObjectHideFlags: 0
  m_PrefabParentObject: {fileID: 0}
  m_PrefabInternal: {fileID: 0}
  m_GameObject: {fileID: 690194436}
  m_Enabled: 1
  m_EditorHideFlags: 0
  m_Script: {fileID: 11500000, guid: db78394d987af79468b9b1ad0b843504, type: 3}
  m_Name: 
  m_EditorClassIdentifier: 
  message: 
  ID: 2
--- !u!1 &789617499
GameObject:
  m_ObjectHideFlags: 0
  m_PrefabParentObject: {fileID: 113238, guid: 2037f06d903da874cac6515daaa3dd27, type: 2}
  m_PrefabInternal: {fileID: 1316719408}
  serializedVersion: 4
  m_Component:
  - 4: {fileID: 789617500}
  m_Layer: 0
  m_Name: Panel
  m_TagString: Untagged
  m_Icon: {fileID: 0}
  m_NavMeshLayer: 0
  m_StaticEditorFlags: 0
  m_IsActive: 1
--- !u!4 &789617500
Transform:
  m_ObjectHideFlags: 0
  m_PrefabParentObject: {fileID: 413238, guid: 2037f06d903da874cac6515daaa3dd27, type: 2}
  m_PrefabInternal: {fileID: 1316719408}
  m_GameObject: {fileID: 789617499}
  m_LocalRotation: {x: 0, y: 0, z: 0, w: 1}
  m_LocalPosition: {x: 0, y: 0, z: 0}
  m_LocalScale: {x: 1, y: 1, z: 1}
  m_Children:
  - {fileID: 467882523}
  m_Father: {fileID: 1733959588}
  m_RootOrder: 0
--- !u!1 &795786674
GameObject:
  m_ObjectHideFlags: 0
  m_PrefabParentObject: {fileID: 113682, guid: f82c6f50751593b4fa68f7a717a6b497, type: 2}
  m_PrefabInternal: {fileID: 918826405}
  serializedVersion: 4
  m_Component:
  - 4: {fileID: 795786675}
  - 120: {fileID: 795786676}
  m_Layer: 9
  m_Name: Line
  m_TagString: Untagged
  m_Icon: {fileID: 0}
  m_NavMeshLayer: 0
  m_StaticEditorFlags: 0
  m_IsActive: 1
--- !u!4 &795786675
Transform:
  m_ObjectHideFlags: 0
  m_PrefabParentObject: {fileID: 413682, guid: f82c6f50751593b4fa68f7a717a6b497, type: 2}
  m_PrefabInternal: {fileID: 918826405}
  m_GameObject: {fileID: 795786674}
  m_LocalRotation: {x: 0, y: 0, z: 0, w: 1}
  m_LocalPosition: {x: 0, y: 0, z: 0}
  m_LocalScale: {x: 1, y: 1, z: 1}
  m_Children: []
  m_Father: {fileID: 181781569}
  m_RootOrder: 3
--- !u!120 &795786676
LineRenderer:
  m_ObjectHideFlags: 0
  m_PrefabParentObject: {fileID: 12013682, guid: f82c6f50751593b4fa68f7a717a6b497,
    type: 2}
  m_PrefabInternal: {fileID: 918826405}
  m_GameObject: {fileID: 795786674}
  m_Enabled: 1
  m_CastShadows: 0
  m_ReceiveShadows: 0
  m_LightmapIndex: 255
  m_LightmapTilingOffset: {x: 1, y: 1, z: 0, w: 0}
  m_Materials:
  - {fileID: 2100000, guid: b4c954cc65ca64b48abfdaa57cc38390, type: 2}
  m_SubsetIndices: 
  m_StaticBatchRoot: {fileID: 0}
  m_UseLightProbes: 0
  m_LightProbeAnchor: {fileID: 0}
  m_ScaleInLightmap: 1
  m_SortingLayerID: 0
  m_SortingOrder: 0
  m_Positions:
  - {x: 1.82200003, y: 1.75, z: 1.89400005}
  - {x: 1.82200003, y: 1.75, z: 1.39400005}
  - {x: 1.82200003, y: 1.75, z: 1.39400005}
  - {x: 1.82200003, y: 1.75, z: 3.5}
  - {x: 1.32200003, y: 1.75, z: 4}
  - {x: .5, y: 1.75, z: 4}
  - {x: 0, y: 1.75, z: 3.5}
  - {x: 0, y: 1.75, z: 0}
  m_Parameters:
    startWidth: .5
    endWidth: .5
    m_StartColor:
      serializedVersion: 2
      rgba: 4294967295
    m_EndColor:
      serializedVersion: 2
      rgba: 4294967295
  m_UseWorldSpace: 1
--- !u!1 &913349708
GameObject:
  m_ObjectHideFlags: 0
  m_PrefabParentObject: {fileID: 113240, guid: 2037f06d903da874cac6515daaa3dd27, type: 2}
  m_PrefabInternal: {fileID: 1316719408}
  serializedVersion: 4
  m_Component:
  - 4: {fileID: 913349709}
  - 33: {fileID: 913349712}
  - 64: {fileID: 913349711}
  - 23: {fileID: 913349710}
  m_Layer: 0
  m_Name: Marker
  m_TagString: Untagged
  m_Icon: {fileID: 0}
  m_NavMeshLayer: 0
  m_StaticEditorFlags: 0
  m_IsActive: 1
--- !u!4 &913349709
Transform:
  m_ObjectHideFlags: 0
  m_PrefabParentObject: {fileID: 413240, guid: 2037f06d903da874cac6515daaa3dd27, type: 2}
  m_PrefabInternal: {fileID: 1316719408}
  m_GameObject: {fileID: 913349708}
  m_LocalRotation: {x: 0, y: 0, z: 0, w: 1}
  m_LocalPosition: {x: 0, y: .00999999978, z: 0}
  m_LocalScale: {x: .400000006, y: .100000001, z: .200000003}
  m_Children: []
  m_Father: {fileID: 1733959588}
  m_RootOrder: 1
--- !u!23 &913349710
Renderer:
  m_ObjectHideFlags: 0
  m_PrefabParentObject: {fileID: 2313238, guid: 2037f06d903da874cac6515daaa3dd27,
    type: 2}
  m_PrefabInternal: {fileID: 1316719408}
  m_GameObject: {fileID: 913349708}
  m_Enabled: 1
  m_CastShadows: 1
  m_ReceiveShadows: 1
  m_LightmapIndex: 255
  m_LightmapTilingOffset: {x: 1, y: 1, z: 0, w: 0}
  m_Materials:
  - {fileID: 2100000, guid: 8975c54e7ddf84041aae9a17571f2427, type: 2}
  m_SubsetIndices: 
  m_StaticBatchRoot: {fileID: 0}
  m_UseLightProbes: 0
  m_LightProbeAnchor: {fileID: 0}
  m_ScaleInLightmap: 1
  m_SortingLayerID: 0
  m_SortingOrder: 0
--- !u!64 &913349711
MeshCollider:
  m_ObjectHideFlags: 0
  m_PrefabParentObject: {fileID: 6413236, guid: 2037f06d903da874cac6515daaa3dd27,
    type: 2}
  m_PrefabInternal: {fileID: 1316719408}
  m_GameObject: {fileID: 913349708}
  m_Material: {fileID: 0}
  m_IsTrigger: 0
  m_Enabled: 1
  serializedVersion: 2
  m_SmoothSphereCollisions: 0
  m_Convex: 0
  m_Mesh: {fileID: 10209, guid: 0000000000000000e000000000000000, type: 0}
--- !u!33 &913349712
MeshFilter:
  m_ObjectHideFlags: 0
  m_PrefabParentObject: {fileID: 3313238, guid: 2037f06d903da874cac6515daaa3dd27,
    type: 2}
  m_PrefabInternal: {fileID: 1316719408}
  m_GameObject: {fileID: 913349708}
  m_Mesh: {fileID: 10209, guid: 0000000000000000e000000000000000, type: 0}
--- !u!1001 &918826405
Prefab:
  m_ObjectHideFlags: 0
  serializedVersion: 2
  m_Modification:
    m_TransformParent: {fileID: 0}
    m_Modifications:
    - target: {fileID: 12013682, guid: f82c6f50751593b4fa68f7a717a6b497, type: 2}
      propertyPath: m_Positions.Array.size
      value: 8
      objectReference: {fileID: 0}
    - target: {fileID: 422236, guid: f82c6f50751593b4fa68f7a717a6b497, type: 2}
      propertyPath: m_LocalPosition.x
      value: 1.82200003
      objectReference: {fileID: 0}
    - target: {fileID: 422236, guid: f82c6f50751593b4fa68f7a717a6b497, type: 2}
      propertyPath: m_LocalPosition.y
      value: 1.75
      objectReference: {fileID: 0}
    - target: {fileID: 422236, guid: f82c6f50751593b4fa68f7a717a6b497, type: 2}
      propertyPath: m_LocalPosition.z
      value: 1.89400005
      objectReference: {fileID: 0}
    - target: {fileID: 422236, guid: f82c6f50751593b4fa68f7a717a6b497, type: 2}
      propertyPath: m_LocalRotation.x
      value: 0
      objectReference: {fileID: 0}
    - target: {fileID: 422236, guid: f82c6f50751593b4fa68f7a717a6b497, type: 2}
      propertyPath: m_LocalRotation.y
      value: 0
      objectReference: {fileID: 0}
    - target: {fileID: 422236, guid: f82c6f50751593b4fa68f7a717a6b497, type: 2}
      propertyPath: m_LocalRotation.z
      value: 0
      objectReference: {fileID: 0}
    - target: {fileID: 422236, guid: f82c6f50751593b4fa68f7a717a6b497, type: 2}
      propertyPath: m_LocalRotation.w
      value: 1
      objectReference: {fileID: 0}
    - target: {fileID: 422236, guid: f82c6f50751593b4fa68f7a717a6b497, type: 2}
      propertyPath: m_RootOrder
      value: 3
      objectReference: {fileID: 0}
    - target: {fileID: 11422236, guid: f82c6f50751593b4fa68f7a717a6b497, type: 2}
      propertyPath: Door
      value: 
      objectReference: {fileID: 1733959589}
    - target: {fileID: 11422236, guid: f82c6f50751593b4fa68f7a717a6b497, type: 2}
      propertyPath: Pressed
      value: 0
      objectReference: {fileID: 0}
    - target: {fileID: 12013682, guid: f82c6f50751593b4fa68f7a717a6b497, type: 2}
      propertyPath: m_Positions.Array.data[0].x
      value: 1.82200003
      objectReference: {fileID: 0}
    - target: {fileID: 12013682, guid: f82c6f50751593b4fa68f7a717a6b497, type: 2}
      propertyPath: m_Positions.Array.data[0].y
      value: 1.75
      objectReference: {fileID: 0}
    - target: {fileID: 12013682, guid: f82c6f50751593b4fa68f7a717a6b497, type: 2}
      propertyPath: m_Positions.Array.data[0].z
      value: 1.89400005
      objectReference: {fileID: 0}
    - target: {fileID: 12013682, guid: f82c6f50751593b4fa68f7a717a6b497, type: 2}
      propertyPath: m_Positions.Array.data[1].x
      value: 1.82200003
      objectReference: {fileID: 0}
    - target: {fileID: 12013682, guid: f82c6f50751593b4fa68f7a717a6b497, type: 2}
      propertyPath: m_Positions.Array.data[1].y
      value: 1.75
      objectReference: {fileID: 0}
    - target: {fileID: 12013682, guid: f82c6f50751593b4fa68f7a717a6b497, type: 2}
      propertyPath: m_Positions.Array.data[1].z
      value: 1.39400005
      objectReference: {fileID: 0}
    - target: {fileID: 12013682, guid: f82c6f50751593b4fa68f7a717a6b497, type: 2}
      propertyPath: m_Positions.Array.data[2].x
      value: 1.82200003
      objectReference: {fileID: 0}
    - target: {fileID: 12013682, guid: f82c6f50751593b4fa68f7a717a6b497, type: 2}
      propertyPath: m_Positions.Array.data[2].y
      value: 1.75
      objectReference: {fileID: 0}
    - target: {fileID: 12013682, guid: f82c6f50751593b4fa68f7a717a6b497, type: 2}
      propertyPath: m_Positions.Array.data[2].z
      value: 1.39400005
      objectReference: {fileID: 0}
    - target: {fileID: 12013682, guid: f82c6f50751593b4fa68f7a717a6b497, type: 2}
      propertyPath: m_Positions.Array.data[3].x
      value: 1.82200003
      objectReference: {fileID: 0}
    - target: {fileID: 12013682, guid: f82c6f50751593b4fa68f7a717a6b497, type: 2}
      propertyPath: m_Positions.Array.data[3].y
      value: 1.75
      objectReference: {fileID: 0}
    - target: {fileID: 12013682, guid: f82c6f50751593b4fa68f7a717a6b497, type: 2}
      propertyPath: m_Positions.Array.data[3].z
      value: 3.5
      objectReference: {fileID: 0}
    - target: {fileID: 12013682, guid: f82c6f50751593b4fa68f7a717a6b497, type: 2}
      propertyPath: m_Positions.Array.data[4].x
      value: 1.32200003
      objectReference: {fileID: 0}
    - target: {fileID: 12013682, guid: f82c6f50751593b4fa68f7a717a6b497, type: 2}
      propertyPath: m_Positions.Array.data[4].y
      value: 1.75
      objectReference: {fileID: 0}
    - target: {fileID: 12013682, guid: f82c6f50751593b4fa68f7a717a6b497, type: 2}
      propertyPath: m_Positions.Array.data[4].z
      value: 4
      objectReference: {fileID: 0}
    - target: {fileID: 12013682, guid: f82c6f50751593b4fa68f7a717a6b497, type: 2}
      propertyPath: m_Positions.Array.data[5].x
      value: .5
      objectReference: {fileID: 0}
    - target: {fileID: 12013682, guid: f82c6f50751593b4fa68f7a717a6b497, type: 2}
      propertyPath: m_Positions.Array.data[5].y
      value: 1.75
      objectReference: {fileID: 0}
    - target: {fileID: 12013682, guid: f82c6f50751593b4fa68f7a717a6b497, type: 2}
      propertyPath: m_Positions.Array.data[5].z
      value: 4
      objectReference: {fileID: 0}
    - target: {fileID: 12013682, guid: f82c6f50751593b4fa68f7a717a6b497, type: 2}
      propertyPath: m_Positions.Array.data[6].y
      value: 1.75
      objectReference: {fileID: 0}
    - target: {fileID: 12013682, guid: f82c6f50751593b4fa68f7a717a6b497, type: 2}
      propertyPath: m_Positions.Array.data[6].z
      value: 3.5
      objectReference: {fileID: 0}
    - target: {fileID: 12013682, guid: f82c6f50751593b4fa68f7a717a6b497, type: 2}
      propertyPath: m_Positions.Array.data[7].y
      value: 1.75
      objectReference: {fileID: 0}
    - target: {fileID: 12013682, guid: f82c6f50751593b4fa68f7a717a6b497, type: 2}
      propertyPath: m_Parameters.m_StartColor.rgba
      value: 4294967295
      objectReference: {fileID: 0}
    - target: {fileID: 12013682, guid: f82c6f50751593b4fa68f7a717a6b497, type: 2}
      propertyPath: m_Parameters.m_EndColor.rgba
      value: 4294967295
      objectReference: {fileID: 0}
    - target: {fileID: 2313682, guid: f82c6f50751593b4fa68f7a717a6b497, type: 2}
      propertyPath: m_Materials.Array.data[0]
      value: 
      objectReference: {fileID: 2100000, guid: 8975c54e7ddf84041aae9a17571f2427, type: 2}
    - target: {fileID: 10891196, guid: f82c6f50751593b4fa68f7a717a6b497, type: 2}
      propertyPath: m_Color.g
      value: 1
      objectReference: {fileID: 0}
    - target: {fileID: 10891196, guid: f82c6f50751593b4fa68f7a717a6b497, type: 2}
      propertyPath: m_Color.b
      value: 1
      objectReference: {fileID: 0}
    - target: {fileID: 2322236, guid: f82c6f50751593b4fa68f7a717a6b497, type: 2}
      propertyPath: m_Materials.Array.data[0]
      value: 
      objectReference: {fileID: 2100000, guid: 8975c54e7ddf84041aae9a17571f2427, type: 2}
    m_RemovedComponents: []
  m_ParentPrefab: {fileID: 100100000, guid: f82c6f50751593b4fa68f7a717a6b497, type: 2}
  m_RootGameObject: {fileID: 181781567}
  m_IsPrefabParent: 0
  m_IsExploded: 1
--- !u!1 &1046402974
GameObject:
  m_ObjectHideFlags: 0
  m_PrefabParentObject: {fileID: 122238, guid: f82c6f50751593b4fa68f7a717a6b497, type: 2}
  m_PrefabInternal: {fileID: 918826405}
  serializedVersion: 4
  m_Component:
  - 4: {fileID: 1046402975}
  - 33: {fileID: 1046402978}
  - 65: {fileID: 1046402977}
  - 23: {fileID: 1046402976}
  m_Layer: 8
  m_Name: Button
  m_TagString: Untagged
  m_Icon: {fileID: 0}
  m_NavMeshLayer: 0
  m_StaticEditorFlags: 0
  m_IsActive: 1
--- !u!4 &1046402975
Transform:
  m_ObjectHideFlags: 0
  m_PrefabParentObject: {fileID: 422238, guid: f82c6f50751593b4fa68f7a717a6b497, type: 2}
  m_PrefabInternal: {fileID: 918826405}
  m_GameObject: {fileID: 1046402974}
  m_LocalRotation: {x: 0, y: -1, z: 0, w: 4.65764032e-07}
  m_LocalPosition: {x: 0, y: 0, z: 0}
  m_LocalScale: {x: 1, y: 1, z: 1}
  m_Children: []
  m_Father: {fileID: 181781569}
  m_RootOrder: 2
--- !u!23 &1046402976
Renderer:
  m_ObjectHideFlags: 0
  m_PrefabParentObject: {fileID: 2322236, guid: f82c6f50751593b4fa68f7a717a6b497,
    type: 2}
  m_PrefabInternal: {fileID: 918826405}
  m_GameObject: {fileID: 1046402974}
  m_Enabled: 1
  m_CastShadows: 1
  m_ReceiveShadows: 1
  m_LightmapIndex: 255
  m_LightmapTilingOffset: {x: 1, y: 1, z: 0, w: 0}
  m_Materials:
  - {fileID: 2100000, guid: 8975c54e7ddf84041aae9a17571f2427, type: 2}
  m_SubsetIndices: 
  m_StaticBatchRoot: {fileID: 0}
  m_UseLightProbes: 0
  m_LightProbeAnchor: {fileID: 0}
  m_ScaleInLightmap: 1
  m_SortingLayerID: 0
  m_SortingOrder: 0
--- !u!65 &1046402977
BoxCollider:
  m_ObjectHideFlags: 0
  m_PrefabParentObject: {fileID: 6522236, guid: f82c6f50751593b4fa68f7a717a6b497,
    type: 2}
  m_PrefabInternal: {fileID: 918826405}
  m_GameObject: {fileID: 1046402974}
  m_Material: {fileID: 0}
  m_IsTrigger: 0
  m_Enabled: 1
  serializedVersion: 2
  m_Size: {x: 1, y: 1, z: 1}
  m_Center: {x: 0, y: 0, z: 0}
--- !u!33 &1046402978
MeshFilter:
  m_ObjectHideFlags: 0
  m_PrefabParentObject: {fileID: 3322236, guid: f82c6f50751593b4fa68f7a717a6b497,
    type: 2}
  m_PrefabInternal: {fileID: 918826405}
  m_GameObject: {fileID: 1046402974}
  m_Mesh: {fileID: 4300002, guid: 8a4c19da5be9d7a48b27725b586cb4a3, type: 3}
--- !u!1001 &1316719408
Prefab:
  m_ObjectHideFlags: 0
  serializedVersion: 2
  m_Modification:
    m_TransformParent: {fileID: 0}
    m_Modifications:
    - target: {fileID: 413242, guid: 2037f06d903da874cac6515daaa3dd27, type: 2}
      propertyPath: m_LocalPosition.x
      value: 0
      objectReference: {fileID: 0}
    - target: {fileID: 413242, guid: 2037f06d903da874cac6515daaa3dd27, type: 2}
      propertyPath: m_LocalPosition.y
      value: 0
      objectReference: {fileID: 0}
    - target: {fileID: 413242, guid: 2037f06d903da874cac6515daaa3dd27, type: 2}
      propertyPath: m_LocalPosition.z
      value: 0
      objectReference: {fileID: 0}
    - target: {fileID: 413242, guid: 2037f06d903da874cac6515daaa3dd27, type: 2}
      propertyPath: m_LocalRotation.x
      value: 0
      objectReference: {fileID: 0}
    - target: {fileID: 413242, guid: 2037f06d903da874cac6515daaa3dd27, type: 2}
      propertyPath: m_LocalRotation.y
      value: 0
      objectReference: {fileID: 0}
    - target: {fileID: 413242, guid: 2037f06d903da874cac6515daaa3dd27, type: 2}
      propertyPath: m_LocalRotation.z
      value: 0
      objectReference: {fileID: 0}
    - target: {fileID: 413242, guid: 2037f06d903da874cac6515daaa3dd27, type: 2}
      propertyPath: m_LocalRotation.w
      value: 1
      objectReference: {fileID: 0}
    - target: {fileID: 413242, guid: 2037f06d903da874cac6515daaa3dd27, type: 2}
      propertyPath: m_RootOrder
      value: 2
      objectReference: {fileID: 0}
    - target: {fileID: 413238, guid: 2037f06d903da874cac6515daaa3dd27, type: 2}
      propertyPath: m_LocalPosition.y
      value: 0
      objectReference: {fileID: 0}
    m_RemovedComponents: []
  m_ParentPrefab: {fileID: 100100000, guid: 2037f06d903da874cac6515daaa3dd27, type: 2}
  m_RootGameObject: {fileID: 1733959587}
  m_IsPrefabParent: 0
  m_IsExploded: 1
--- !u!1 &1555451259
GameObject:
  m_ObjectHideFlags: 0
  m_PrefabParentObject: {fileID: 0}
  m_PrefabInternal: {fileID: 0}
  serializedVersion: 4
  m_Component:
  - 4: {fileID: 1555451263}
  - 33: {fileID: 1555451262}
  - 64: {fileID: 1555451261}
  - 23: {fileID: 1555451260}
  m_Layer: 0
  m_Name: Ground
  m_TagString: Untagged
  m_Icon: {fileID: 0}
  m_NavMeshLayer: 0
  m_StaticEditorFlags: 0
  m_IsActive: 1
--- !u!23 &1555451260
Renderer:
  m_ObjectHideFlags: 0
  m_PrefabParentObject: {fileID: 0}
  m_PrefabInternal: {fileID: 0}
  m_GameObject: {fileID: 1555451259}
  m_Enabled: 1
  m_CastShadows: 1
  m_ReceiveShadows: 1
  m_LightmapIndex: 255
  m_LightmapTilingOffset: {x: 1, y: 1, z: 0, w: 0}
  m_Materials:
  - {fileID: 10302, guid: 0000000000000000f000000000000000, type: 0}
  m_SubsetIndices: 
  m_StaticBatchRoot: {fileID: 0}
  m_UseLightProbes: 0
  m_LightProbeAnchor: {fileID: 0}
  m_ScaleInLightmap: 1
  m_SortingLayerID: 0
  m_SortingOrder: 0
--- !u!64 &1555451261
MeshCollider:
  m_ObjectHideFlags: 0
  m_PrefabParentObject: {fileID: 0}
  m_PrefabInternal: {fileID: 0}
  m_GameObject: {fileID: 1555451259}
  m_Material: {fileID: 0}
  m_IsTrigger: 0
  m_Enabled: 1
  serializedVersion: 2
  m_SmoothSphereCollisions: 0
  m_Convex: 0
  m_Mesh: {fileID: 10209, guid: 0000000000000000e000000000000000, type: 0}
--- !u!33 &1555451262
MeshFilter:
  m_ObjectHideFlags: 0
  m_PrefabParentObject: {fileID: 0}
  m_PrefabInternal: {fileID: 0}
  m_GameObject: {fileID: 1555451259}
  m_Mesh: {fileID: 10209, guid: 0000000000000000e000000000000000, type: 0}
--- !u!4 &1555451263
Transform:
  m_ObjectHideFlags: 0
  m_PrefabParentObject: {fileID: 0}
  m_PrefabInternal: {fileID: 0}
  m_GameObject: {fileID: 1555451259}
  m_LocalRotation: {x: 0, y: 0, z: 0, w: 1}
  m_LocalPosition: {x: 0, y: 0, z: 0}
  m_LocalScale: {x: 1, y: 1, z: 1}
  m_Children: []
  m_Father: {fileID: 0}
  m_RootOrder: 1
--- !u!1 &1733959587
GameObject:
  m_ObjectHideFlags: 0
  m_PrefabParentObject: {fileID: 113242, guid: 2037f06d903da874cac6515daaa3dd27, type: 2}
  m_PrefabInternal: {fileID: 1316719408}
  serializedVersion: 4
  m_Component:
  - 4: {fileID: 1733959588}
  - 114: {fileID: 1733959589}
  m_Layer: 0
  m_Name: Door
  m_TagString: Untagged
  m_Icon: {fileID: 0}
  m_NavMeshLayer: 0
  m_StaticEditorFlags: 0
  m_IsActive: 1
--- !u!4 &1733959588
Transform:
  m_ObjectHideFlags: 0
  m_PrefabParentObject: {fileID: 413242, guid: 2037f06d903da874cac6515daaa3dd27, type: 2}
  m_PrefabInternal: {fileID: 1316719408}
  m_GameObject: {fileID: 1733959587}
  m_LocalRotation: {x: 0, y: 0, z: 0, w: 1}
  m_LocalPosition: {x: 0, y: 0, z: 0}
  m_LocalScale: {x: 1, y: 1, z: 1}
  m_Children:
  - {fileID: 789617500}
  - {fileID: 913349709}
  m_Father: {fileID: 0}
  m_RootOrder: 2
--- !u!114 &1733959589
MonoBehaviour:
  m_ObjectHideFlags: 0
  m_PrefabParentObject: {fileID: 11413236, guid: 2037f06d903da874cac6515daaa3dd27,
    type: 2}
  m_PrefabInternal: {fileID: 1316719408}
  m_GameObject: {fileID: 1733959587}
  m_Enabled: 1
  m_EditorHideFlags: 0
  m_Script: {fileID: 11500000, guid: 3b87b33aa281d8c46a0905a4731b131f, type: 3}
  m_Name: 
  m_EditorClassIdentifier: 
  Open: 0
  Panel: {fileID: 789617499}
  OpenOffset: {x: 0, y: -4.0999999, z: 0}
  Damping: .100000001
  Material: {fileID: 2100000, guid: 8975c54e7ddf84041aae9a17571f2427, type: 2}
  Marker: {fileID: 913349710}
  PanelRenderer: {fileID: 467882520}
  PanelRendererMaterialId: 1
  Switches:
  - {fileID: 181781568}
--- !u!1 &1901530401
GameObject:
  m_ObjectHideFlags: 0
  m_PrefabParentObject: {fileID: 0}
  m_PrefabInternal: {fileID: 0}
  serializedVersion: 4
  m_Component:
  - 4: {fileID: 1901530406}
  - 20: {fileID: 1901530405}
  - 92: {fileID: 1901530404}
  - 124: {fileID: 1901530403}
  - 81: {fileID: 1901530402}
  m_Layer: 0
  m_Name: Main Camera
  m_TagString: MainCamera
  m_Icon: {fileID: 0}
  m_NavMeshLayer: 0
  m_StaticEditorFlags: 0
  m_IsActive: 1
--- !u!81 &1901530402
AudioListener:
  m_ObjectHideFlags: 0
  m_PrefabParentObject: {fileID: 0}
  m_PrefabInternal: {fileID: 0}
  m_GameObject: {fileID: 1901530401}
  m_Enabled: 1
--- !u!124 &1901530403
Behaviour:
  m_ObjectHideFlags: 0
  m_PrefabParentObject: {fileID: 0}
  m_PrefabInternal: {fileID: 0}
  m_GameObject: {fileID: 1901530401}
  m_Enabled: 1
--- !u!92 &1901530404
Behaviour:
  m_ObjectHideFlags: 0
  m_PrefabParentObject: {fileID: 0}
  m_PrefabInternal: {fileID: 0}
  m_GameObject: {fileID: 1901530401}
  m_Enabled: 1
--- !u!20 &1901530405
Camera:
  m_ObjectHideFlags: 0
  m_PrefabParentObject: {fileID: 0}
  m_PrefabInternal: {fileID: 0}
  m_GameObject: {fileID: 1901530401}
  m_Enabled: 1
  serializedVersion: 2
  m_ClearFlags: 1
  m_BackGroundColor: {r: .192156866, g: .301960796, b: .474509805, a: .0196078438}
  m_NormalizedViewPortRect:
    serializedVersion: 2
    x: 0
    y: 0
    width: 1
    height: 1
  near clip plane: .300000012
  far clip plane: 1000
  field of view: 60
  orthographic: 0
  orthographic size: 5
  m_Depth: -1
  m_CullingMask:
    serializedVersion: 2
    m_Bits: 4294967295
  m_RenderingPath: -1
  m_TargetTexture: {fileID: 0}
  m_TargetDisplay: 0
  m_HDR: 0
  m_OcclusionCulling: 1
  m_StereoConvergence: 10
  m_StereoSeparation: .0219999999
--- !u!4 &1901530406
Transform:
  m_ObjectHideFlags: 0
  m_PrefabParentObject: {fileID: 0}
  m_PrefabInternal: {fileID: 0}
  m_GameObject: {fileID: 1901530401}
  m_LocalRotation: {x: 0, y: 0, z: 0, w: 1}
  m_LocalPosition: {x: 0, y: 1, z: -10}
  m_LocalScale: {x: 1, y: 1, z: 1}
  m_Children: []
  m_Father: {fileID: 0}
  m_RootOrder: 0
